{
    "info": {
        "title":        "次世代経営コンサルティングの株式会社FISソリューションズ",
        "description":  "FISソリューションズは、電話工事、LAN工事からビジネスフォン、コピー機の導入など。 情報通信コンサルタントのプロがお客様のオフィス環境について幅広くサポートいたします。",
        "keywords":     "次世代経営コンサルティング,経営相談,ビジネスフォン,通信費削減,株式会社FISソリューションズ",
        "url":          "http://www.fis-s.co.jp/sp/",
        "image":        "http://www.fis-s.co.jp/sp/assets/img/ogp_img.png",
        "site_name":    "FISソリューションズ"
    }
}